// Jest Snapshot v1, https://goo.gl/fbAQLP

exports[`renders correctly 1`] = `
<div
  className="css-22txz0 false false"
>
  <div
    className="header__top_container"
  >
    <div
      className="header__hamburger"
      onClick={[Function]}
    >
      <span />
      <span />
      <span />
    </div>
    <div
      className="header__logo"
    >
      <img
        alt="Logo"
        src="img/marfeel_logo_rgb.svg"
      />
    </div>
  </div>
  <div
    className="header__sections false"
  >
    <div
      className="sectionMenu"
    >
      
    </div>
  </div>
</div>
`;
